%YAML 1.1
%TAG !u! tag:unity3d.com,2011:
--- !u!74 &7400000
AnimationClip:
  m_ObjectHideFlags: 0
  m_CorrespondingSourceObject: {fileID: 0}
  m_PrefabInstance: {fileID: 0}
  m_PrefabAsset: {fileID: 0}
  m_Name: Mom_Dead
  serializedVersion: 6
  m_Legacy: 0
  m_Compressed: 0
  m_UseHighQualityCurve: 1
  m_RotationCurves: []
  m_CompressedRotationCurves: []
  m_EulerCurves: []
  m_PositionCurves: []
  m_ScaleCurves: []
  m_FloatCurves: []
  m_PPtrCurves:
  - curve:
    - time: 0
      value: {fileID: 21300000, guid: d178713b934865f429909d0a255b9bdc, type: 3}
    - time: 0.083333336
      value: {fileID: 21300000, guid: bd94d9442c415f14d9ac5d4c53db55b6, type: 3}
    - time: 0.16666667
      value: {fileID: 21300000, guid: e4cad309ef94e8d4dbb59ae9f4f08674, type: 3}
    - time: 0.25
      value: {fileID: 21300000, guid: 3c15c8ce03dd86843ac2a5e802fc1211, type: 3}
    - time: 0.33333334
      value: {fileID: 21300000, guid: f10db264486d01342a08e24131339d0e, type: 3}
    - time: 0.41666666
      value: {fileID: 21300000, guid: 086a5c87fde8d8c4e93e1c63e1bdaba8, type: 3}
    - time: 0.5
      value: {fileID: 21300000, guid: fb61d2c7ba841ff4aa08360b16350b5c, type: 3}
    - time: 0.5833333
      value: {fileID: 21300000, guid: f0a4555a4b433374b9d00093c4ef70e2, type: 3}
    - time: 0.6666667
      value: {fileID: 21300000, guid: f080172325964dd42a06f3cba5456e3d, type: 3}
    - time: 0.75
      value: {fileID: 21300000, guid: b3bcc597d306f3340b6331dfca3994fd, type: 3}
    attribute: m_Sprite
    path: 
    classID: 212
    script: {fileID: 0}
  m_SampleRate: 12
  m_WrapMode: 0
  m_Bounds:
    m_Center: {x: 0, y: 0, z: 0}
    m_Extent: {x: 0, y: 0, z: 0}
  m_ClipBindingConstant:
    genericBindings:
    - serializedVersion: 2
      path: 0
      attribute: 0
      script: {fileID: 0}
      typeID: 212
      customType: 23
      isPPtrCurve: 1
    pptrCurveMapping:
    - {fileID: 21300000, guid: d178713b934865f429909d0a255b9bdc, type: 3}
    - {fileID: 21300000, guid: bd94d9442c415f14d9ac5d4c53db55b6, type: 3}
    - {fileID: 21300000, guid: e4cad309ef94e8d4dbb59ae9f4f08674, type: 3}
    - {fileID: 21300000, guid: 3c15c8ce03dd86843ac2a5e802fc1211, type: 3}
    - {fileID: 21300000, guid: f10db264486d01342a08e24131339d0e, type: 3}
    - {fileID: 21300000, guid: 086a5c87fde8d8c4e93e1c63e1bdaba8, type: 3}
    - {fileID: 21300000, guid: fb61d2c7ba841ff4aa08360b16350b5c, type: 3}
    - {fileID: 21300000, guid: f0a4555a4b433374b9d00093c4ef70e2, type: 3}
    - {fileID: 21300000, guid: f080172325964dd42a06f3cba5456e3d, type: 3}
    - {fileID: 21300000, guid: b3bcc597d306f3340b6331dfca3994fd, type: 3}
  m_AnimationClipSettings:
    serializedVersion: 2
    m_AdditiveReferencePoseClip: {fileID: 0}
    m_AdditiveReferencePoseTime: 0
    m_StartTime: 0
    m_StopTime: 0.8333333
    m_OrientationOffsetY: 0
    m_Level: 0
    m_CycleOffset: 0
    m_HasAdditiveReferencePose: 0
    m_LoopTime: 0
    m_LoopBlend: 0
    m_LoopBlendOrientation: 0
    m_LoopBlendPositionY: 0
    m_LoopBlendPositionXZ: 0
    m_KeepOriginalOrientation: 0
    m_KeepOriginalPositionY: 1
    m_KeepOriginalPositionXZ: 0
    m_HeightFromFeet: 0
    m_Mirror: 0
  m_EditorCurves: []
  m_EulerEditorCurves: []
  m_HasGenericRootTransform: 0
  m_HasMotionFloatCurves: 0
  m_Events:
  - time: 0.41666666
    functionName: PlayFMODSound
    data: event:/Dad_Dead
    objectReferenceParameter: {fileID: 0}
    floatParameter: 0
    intParameter: 0
    messageOptions: 0
