%YAML 1.1
%TAG !u! tag:unity3d.com,2011:
--- !u!74 &7400000
AnimationClip:
  m_ObjectHideFlags: 0
  m_CorrespondingSourceObject: {fileID: 0}
  m_PrefabInstance: {fileID: 0}
  m_PrefabAsset: {fileID: 0}
  m_Name: Sisbor_Cool
  serializedVersion: 6
  m_Legacy: 0
  m_Compressed: 0
  m_UseHighQualityCurve: 1
  m_RotationCurves: []
  m_CompressedRotationCurves: []
  m_EulerCurves: []
  m_PositionCurves: []
  m_ScaleCurves: []
  m_FloatCurves: []
  m_PPtrCurves:
  - curve:
    - time: 0
      value: {fileID: 21300000, guid: ec06386c100285d4d8942812fd0e9b28, type: 3}
    - time: 0.083333336
      value: {fileID: 21300000, guid: cb4eb948a3bbeed45866d2e3a39aaf8a, type: 3}
    - time: 0.16666667
      value: {fileID: 21300000, guid: 0344d180daf3c0e46a723f882a05815a, type: 3}
    - time: 0.25
      value: {fileID: 21300000, guid: 4b4b7de0e3c0f934a9a2b09c6e908f38, type: 3}
    - time: 0.33333334
      value: {fileID: 21300000, guid: 4818b0eb7d993ee478e953e28f3637c7, type: 3}
    - time: 0.41666666
      value: {fileID: 21300000, guid: 4e1ca05929e2c884098bffef96996294, type: 3}
    - time: 0.5
      value: {fileID: 21300000, guid: afceebff57e13d940b5eb0c823f5fd89, type: 3}
    - time: 0.5833333
      value: {fileID: 21300000, guid: 8b7718c176353604a99ced9c939224c4, type: 3}
    - time: 0.6666667
      value: {fileID: 21300000, guid: 5a7926b79e14e864c93a3d2a298ea908, type: 3}
    - time: 0.75
      value: {fileID: 21300000, guid: d54dfca201df474488c08ef9bae786da, type: 3}
    - time: 0.8333333
      value: {fileID: 21300000, guid: 385c3a89f7c96c244936d36081ff9500, type: 3}
    attribute: m_Sprite
    path: 
    classID: 212
    script: {fileID: 0}
  m_SampleRate: 12
  m_WrapMode: 0
  m_Bounds:
    m_Center: {x: 0, y: 0, z: 0}
    m_Extent: {x: 0, y: 0, z: 0}
  m_ClipBindingConstant:
    genericBindings:
    - serializedVersion: 2
      path: 0
      attribute: 0
      script: {fileID: 0}
      typeID: 212
      customType: 23
      isPPtrCurve: 1
    pptrCurveMapping:
    - {fileID: 21300000, guid: ec06386c100285d4d8942812fd0e9b28, type: 3}
    - {fileID: 21300000, guid: cb4eb948a3bbeed45866d2e3a39aaf8a, type: 3}
    - {fileID: 21300000, guid: 0344d180daf3c0e46a723f882a05815a, type: 3}
    - {fileID: 21300000, guid: 4b4b7de0e3c0f934a9a2b09c6e908f38, type: 3}
    - {fileID: 21300000, guid: 4818b0eb7d993ee478e953e28f3637c7, type: 3}
    - {fileID: 21300000, guid: 4e1ca05929e2c884098bffef96996294, type: 3}
    - {fileID: 21300000, guid: afceebff57e13d940b5eb0c823f5fd89, type: 3}
    - {fileID: 21300000, guid: 8b7718c176353604a99ced9c939224c4, type: 3}
    - {fileID: 21300000, guid: 5a7926b79e14e864c93a3d2a298ea908, type: 3}
    - {fileID: 21300000, guid: d54dfca201df474488c08ef9bae786da, type: 3}
    - {fileID: 21300000, guid: 385c3a89f7c96c244936d36081ff9500, type: 3}
  m_AnimationClipSettings:
    serializedVersion: 2
    m_AdditiveReferencePoseClip: {fileID: 0}
    m_AdditiveReferencePoseTime: 0
    m_StartTime: 0
    m_StopTime: 0.9166666
    m_OrientationOffsetY: 0
    m_Level: 0
    m_CycleOffset: 0
    m_HasAdditiveReferencePose: 0
    m_LoopTime: 0
    m_LoopBlend: 0
    m_LoopBlendOrientation: 0
    m_LoopBlendPositionY: 0
    m_LoopBlendPositionXZ: 0
    m_KeepOriginalOrientation: 0
    m_KeepOriginalPositionY: 1
    m_KeepOriginalPositionXZ: 0
    m_HeightFromFeet: 0
    m_Mirror: 0
  m_EditorCurves: []
  m_EulerEditorCurves: []
  m_HasGenericRootTransform: 0
  m_HasMotionFloatCurves: 0
  m_Events:
  - time: 0.41666666
    functionName: PlayFMODSound
    data: event:/Sisbro_Cool
    objectReferenceParameter: {fileID: 0}
    floatParameter: 0
    intParameter: 0
    messageOptions: 0
