%YAML 1.1
%TAG !u! tag:unity3d.com,2011:
--- !u!74 &7400000
AnimationClip:
  m_ObjectHideFlags: 0
  m_CorrespondingSourceObject: {fileID: 0}
  m_PrefabInstance: {fileID: 0}
  m_PrefabAsset: {fileID: 0}
  m_Name: GoodEnd2
  serializedVersion: 6
  m_Legacy: 0
  m_Compressed: 0
  m_UseHighQualityCurve: 1
  m_RotationCurves: []
  m_CompressedRotationCurves: []
  m_EulerCurves: []
  m_PositionCurves: []
  m_ScaleCurves: []
  m_FloatCurves: []
  m_PPtrCurves:
  - curve:
    - time: 0
      value: {fileID: 21300000, guid: 6c02bec6632465941a99a9ff6e15d656, type: 3}
    - time: 0.083333336
      value: {fileID: 21300000, guid: 0950d1823f8e21a408f36a2893f3ac25, type: 3}
    - time: 0.16666667
      value: {fileID: 21300000, guid: 68232bf2769d7b3419f9bd70f536e3a1, type: 3}
    - time: 0.25
      value: {fileID: 21300000, guid: 7bbafc07da82c404a931b58558dce2c8, type: 3}
    - time: 0.33333334
      value: {fileID: 21300000, guid: 2726dc88eed4822438a16ed58e503afa, type: 3}
    - time: 0.41666666
      value: {fileID: 21300000, guid: e371cd73c7a8aa04a995cb42b7d6ffa6, type: 3}
    - time: 0.5
      value: {fileID: 21300000, guid: eb851344246771046be0aeae1affcbd6, type: 3}
    - time: 0.5833333
      value: {fileID: 21300000, guid: ec23888f3a3394c46a1e6b164ae42166, type: 3}
    - time: 0.6666667
      value: {fileID: 21300000, guid: 47cee36591e96304a8e5c0bfa3133acc, type: 3}
    - time: 0.75
      value: {fileID: 21300000, guid: 6fc3956595274d1459e69e93590106e1, type: 3}
    - time: 0.8333333
      value: {fileID: 21300000, guid: e1c74f8d83b2b2c499cf5f0d5f493bb9, type: 3}
    - time: 0.9166667
      value: {fileID: 21300000, guid: b7850e92531fce543a786b69d07a2f1e, type: 3}
    - time: 1
      value: {fileID: 21300000, guid: c2b873b1f60a9f748b04c08308c88289, type: 3}
    - time: 1.0833334
      value: {fileID: 21300000, guid: be6c5b9506c14534393e6726399ed260, type: 3}
    - time: 1.1666666
      value: {fileID: 21300000, guid: c3f3233fb646eb14391229f6d82578af, type: 3}
    - time: 1.25
      value: {fileID: 21300000, guid: 4c58ce596d083c348aa63e9bd052e60c, type: 3}
    - time: 1.3333334
      value: {fileID: 21300000, guid: bead4af8fefb1f346aebc98c49f40bde, type: 3}
    - time: 1.4166666
      value: {fileID: 21300000, guid: 10d813df13f4fa342948fca48e149960, type: 3}
    - time: 1.5
      value: {fileID: 21300000, guid: e4c94a86074ea8145a94b8ee305c7a63, type: 3}
    - time: 1.5833334
      value: {fileID: 21300000, guid: 676734a7519057a42ad5590fb26f8a4b, type: 3}
    - time: 1.6666666
      value: {fileID: 21300000, guid: 30347506034dd2049a9f2c62d9302354, type: 3}
    - time: 1.75
      value: {fileID: 21300000, guid: 615e09587e34f564f8519d19dc830275, type: 3}
    - time: 1.8333334
      value: {fileID: 21300000, guid: a66fd2e946a507f40a8e108d6d40f809, type: 3}
    - time: 1.9166666
      value: {fileID: 21300000, guid: 0bdff2d16c3976e48b3435d56485ef38, type: 3}
    - time: 2
      value: {fileID: 21300000, guid: ee536ac3010432547be3394e57b5b77e, type: 3}
    attribute: m_Sprite
    path: People
    classID: 212
    script: {fileID: 0}
  m_SampleRate: 12
  m_WrapMode: 0
  m_Bounds:
    m_Center: {x: 0, y: 0, z: 0}
    m_Extent: {x: 0, y: 0, z: 0}
  m_ClipBindingConstant:
    genericBindings:
    - serializedVersion: 2
      path: 800747280
      attribute: 0
      script: {fileID: 0}
      typeID: 212
      customType: 23
      isPPtrCurve: 1
    pptrCurveMapping:
    - {fileID: 21300000, guid: 6c02bec6632465941a99a9ff6e15d656, type: 3}
    - {fileID: 21300000, guid: 0950d1823f8e21a408f36a2893f3ac25, type: 3}
    - {fileID: 21300000, guid: 68232bf2769d7b3419f9bd70f536e3a1, type: 3}
    - {fileID: 21300000, guid: 7bbafc07da82c404a931b58558dce2c8, type: 3}
    - {fileID: 21300000, guid: 2726dc88eed4822438a16ed58e503afa, type: 3}
    - {fileID: 21300000, guid: e371cd73c7a8aa04a995cb42b7d6ffa6, type: 3}
    - {fileID: 21300000, guid: eb851344246771046be0aeae1affcbd6, type: 3}
    - {fileID: 21300000, guid: ec23888f3a3394c46a1e6b164ae42166, type: 3}
    - {fileID: 21300000, guid: 47cee36591e96304a8e5c0bfa3133acc, type: 3}
    - {fileID: 21300000, guid: 6fc3956595274d1459e69e93590106e1, type: 3}
    - {fileID: 21300000, guid: e1c74f8d83b2b2c499cf5f0d5f493bb9, type: 3}
    - {fileID: 21300000, guid: b7850e92531fce543a786b69d07a2f1e, type: 3}
    - {fileID: 21300000, guid: c2b873b1f60a9f748b04c08308c88289, type: 3}
    - {fileID: 21300000, guid: be6c5b9506c14534393e6726399ed260, type: 3}
    - {fileID: 21300000, guid: c3f3233fb646eb14391229f6d82578af, type: 3}
    - {fileID: 21300000, guid: 4c58ce596d083c348aa63e9bd052e60c, type: 3}
    - {fileID: 21300000, guid: bead4af8fefb1f346aebc98c49f40bde, type: 3}
    - {fileID: 21300000, guid: 10d813df13f4fa342948fca48e149960, type: 3}
    - {fileID: 21300000, guid: e4c94a86074ea8145a94b8ee305c7a63, type: 3}
    - {fileID: 21300000, guid: 676734a7519057a42ad5590fb26f8a4b, type: 3}
    - {fileID: 21300000, guid: 30347506034dd2049a9f2c62d9302354, type: 3}
    - {fileID: 21300000, guid: 615e09587e34f564f8519d19dc830275, type: 3}
    - {fileID: 21300000, guid: a66fd2e946a507f40a8e108d6d40f809, type: 3}
    - {fileID: 21300000, guid: 0bdff2d16c3976e48b3435d56485ef38, type: 3}
    - {fileID: 21300000, guid: ee536ac3010432547be3394e57b5b77e, type: 3}
  m_AnimationClipSettings:
    serializedVersion: 2
    m_AdditiveReferencePoseClip: {fileID: 0}
    m_AdditiveReferencePoseTime: 0
    m_StartTime: 0
    m_StopTime: 2.0833333
    m_OrientationOffsetY: 0
    m_Level: 0
    m_CycleOffset: 0
    m_HasAdditiveReferencePose: 0
    m_LoopTime: 0
    m_LoopBlend: 0
    m_LoopBlendOrientation: 0
    m_LoopBlendPositionY: 0
    m_LoopBlendPositionXZ: 0
    m_KeepOriginalOrientation: 0
    m_KeepOriginalPositionY: 1
    m_KeepOriginalPositionXZ: 0
    m_HeightFromFeet: 0
    m_Mirror: 0
  m_EditorCurves: []
  m_EulerEditorCurves: []
  m_HasGenericRootTransform: 0
  m_HasMotionFloatCurves: 0
  m_Events: []
